[
    {
         
        "id": "1", 
        "imageUrl": "motorola-xoom-with-wi-fi.0.jpg", 
        "name": "Motorola XOOM\u2122 with Wi-Fi", 
        "desc": "The Next, Next Generation\r\n\r\nExperience the future with Motorola XOOM with Wi-Fi, the world's first tablet powered by Android 3.0 (Honeycomb).",
        "price":"8003",
        "categories":[
            "mobile"
        ]
    },
    {
        
        "id": "2", 
        "imageUrl": "motorola-xoom.0.jpg", 
        "name": "MOTOROLA XOOM\u2122", 
        "desc": "The Next, Next Generation\n\nExperience the future with MOTOROLA XOOM, the world's first tablet powered by Android 3.0 (Honeycomb).",
        "price":"16563",
        "categories":[
            "mobile"
        ]
    }, 
    {
         
        
        "id": "3", 
        "imageUrl": "motorola-atrix-4g.0.jpg", 
        "name": "MOTOROLA ATRIX\u2122 4G", 
        "desc": "MOTOROLA ATRIX 4G the world's most powerful smartphone.",
        "price":"18100",
        "categories":[
            "mobile"
        ]
    }, 
    {
        
        "id": "4", 
        "imageUrl": "dell-streak-7.0.jpg", 
        "name": "Dell Streak 7", 
        "desc": "Introducing Dell\u2122 Streak 7. Share photos, videos and movies together. It\u2019s small enough to carry around, big enough to gather around.",
        "price":"15000",
        "categories":[
            "mobile"
        ]
    }, 
    {
 
        
        "id": "5", 
        "imageUrl": "samsung-gem.0.jpg", 
        "name": "Samsung Gem\u2122", 
        "desc": "The Samsung Gem\u2122 brings you everything that you would expect and more from a touch display smart phone \u2013 more apps, more features and a more affordable price.",
        "price":"56671",
        "categories":[
            "mobile"
        ]
    }, 
    {
         
        
        "id": "6", 
        "imageUrl": "dell-venue.0.jpg", 
        "name": "Dell Venue", 
        "desc": "The Dell Venue; Your Personal Express Lane to Everything",
        "price":"25687",
        "categories":[
            "mobile"
        ]
    }, 
    {
         
        
        "id": "7", 
        "imageUrl": "phone-and-accessories-94762.jpg", 
        "name": "Charger", 
        "desc": "Expand the memory capacity of your mobile device or DSLR with this Samsung MicroSDXC 64 GB Class 10 EVO Plus memory card",
        "price":"1666",
        "categories":[
            "mobile-acc"
        ]
    }

]